[{
    "title": "JCCSS",
    "text1": "Jeremy Carter's Computer Service and Sales",
    "text2": "Buy a new high quality custom Linux or Windows desktop or laptop computer. Full stack development services available as well.",
    "link": "https://jccss.ca"
  },
  {
    "title": "writ",
    "text1": "Writings by Jeremy that no publisher wanted to buy yet.",
    "text2": "( eternalvoid.net/writ blog )",
    "link": "writ"
  },
  {
    "title": "Telephone Sound",
    "text1": "Fern and Jeremy's band, formed in 2013.",
    "text2": "The second album Empty Spaces was released February 2019, and was recorded and produced with Bitwig and Ardour.",
    "link": "https://telephonesound.com"
  },
  {
    "title": "Defcronyke",
    "text1": "Jeremy's solo electronic music project, started in 2006.",
    "text2": "Featuring experimental content that isn't suitable for Telephone Sound.",
    "link": "https://defcronyke.com"
  },
  {
    "title": "PrettyWeird.ca",
    "text1": "Unique apparel for all, by Fern Vale Volante, the artist who made the background image on this site.",
    "text2": "Fern is the other member of Telephone Sound, and has collaborated on some of the other stuff on this site.",
    "link": "https://prettyweird.ca"
  },
  {
    "title": "Published Technical Writing",
    "text1": "Technical writing by Jeremy which has been published somewhere.",
    "link": "https://defcronyke.github.io/published-tech-writing"
  },
  {
    "title": "<a href=\"https://gitlab.com/defcronyke/wifi-captive-portal-esp-idf\">Wifi Captive Portal ESP-IDF</a>",
    "text1": "<a href=\"https://gitlab.com/defcronyke/wifi-captive-portal-esp-idf\">An ESP-IDF firmware and component project for ESP32 microcontrollers, which runs a Wifi Access Point with a Captive Portal feature.</a>",
    "text2": "<a class=\"link\" href=\"https://gitlab.com/defcronyke/wifi-captive-portal-esp-idf\">https://gitlab.com/defcronyke/wifi-captive-portal-esp-idf</a>",
    "text3": "<a class=\"link\" href=\"https://github.com/defcronyke/wifi-captive-portal-esp-idf\">https://github.com/defcronyke/wifi-captive-portal-esp-idf</a>"
  },
  {
    "title": "Epaper-IDF",
    "text1": "An easy to use ESP-IDF component and firmware project for e-paper/e-ink displays connected to Espressif ESP32 microcontrollers. A work in progress.",
    "link": "https://gitlab.com/defcronyke/epaper-idf"
  },
  {
    "title": "<a href=\"https://gitlab.com/defcronyke/git-remote-add-multi\">Git Remote Add Multi</a>",
    "text1": "<a href=\"https://gitlab.com/defcronyke/git-remote-add-multi\">A helper script to add a new git remote called \"all\" pointing at both the current origin remote, and a secondary remote to use as a mirror.</a>",
    "text2": "Linux Command: <span class=\"copyToClipboard\">bash <(curl -sL https://tinyurl.com/git-remote-add-multi)</span>",
    "text3": "<a href=\"https://gitlab.com/defcronyke/git-remote-add-multi\" class=\"link\">https://gitlab.com/defcronyke/git-remote-add-multi</a>"
  },
  {
    "title": "Hobnob",
    "text1": "A set of Open Base and Open View systems for software projects on Linux, Windows, and macOS. Written in Rust and Go. A work in progress.",
    "link": "https://github.com/defcronyke/hobnob"
  },
  {
    "title": "GitHub Artifact",
    "text1": "Download links for your GitHub Actions CI/CD build artifacts. A Rust web app that runs in a Docker container.",
    "link": "https://github.com/defcronyke/github-artifact"
  },
  {
    "title": "Debian Post-Install Setup",
    "text1": "Run this script after installing Debian to automatically set up a few things which people sometimes complain about Debian not doing during its official install process.",
    "link": "https://gitlab.com/defcronyke/debian-post-install"
  },
  {
    "title": "Plant Monitor",
    "text1": "An esp32 plant monitor program for 8 analog moisture sensors, with a wifi client, an sntp client for time synchronization, OTA update support, and a web app for displaying the sensor data in a web browser.",
    "link": "https://gitlab.com/defcronyke/plant-monitor"
  },
  {
    "title": "DDS Signal Generator GH-CJDS66 Control Software",
    "text1": "A cross-platform command line program and library which can control nearly every aspect of an inexpensive Koolertron DDS Signal Generator device, written in the Rust programming language, and published on crates.io.",
    "link": "https://gitlab.com/defcronyke/signal-gen-cjds66"
  },
  {
    "title": "<a href=\"https://chonkify.me\">chonkify.me</a>",
    "text1": "<a href=\"https://chonkify.me\">To chonkify yourself or cat / lizard / turtle / snake. May not be used to chonkify dogs or someone else.</a>",
    "text2": "<a href=\"https://gitlab.com/defcronyke/chonkify\" class=\"link\">https://gitlab.com/defcronyke/chonkify</a>",
    "text3": "<a href=\"https://github.com/defcronyke/chonkify\" class=\"link\">https://github.com/defcronyke/chonkify</a>"
  },
  {
    "title": "<a href=\"https://defcronyke.gitlab.io/markov-chain\">Markov Chain Web App</a>",
    "text1": "<a href=\"https://defcronyke.gitlab.io/markov-chain\">Generate some rather incoherent sentences loosely based on an input text.</a>",
    "text2": "Get text from a random source: <a href=\"https://tinyurl.com/markov-text?words=100\" class=\"link\">https://tinyurl.com/markov-text?words=100</a>",
    "text3": "<a href=\"https://defcronyke.gitlab.io/markov-chain\" class=\"link\">https://defcronyke.gitlab.io/markov-chain</a>"
  },
  {
    "title": "<a href=\"https://gitlab.com/defcronyke/markov-url\">Markov URL</a>",
    "text1": "<a href=\"https://gitlab.com/defcronyke/markov-url\">Generate some rather incoherent sentences loosely based on an input URL.</a>",
    "text2": "Linux Command: <span class=\"copyToClipboard\">bash <(curl -sL https://tinyurl.com/markov-url)</span> [approx-num-words] [url]",
    "text3": "<a href=\"https://gitlab.com/defcronyke/markov-url\" class=\"link\">https://gitlab.com/defcronyke/markov-url</a>"
  },
  {
    "title": "<a href=\"https://gitlab.com/defcronyke/vnc-ssh\">VNC SSH</a>",
    "text1": "<a href=\"https://gitlab.com/defcronyke/vnc-ssh\">A helper script to connect to a VNC server using SSH port forwarding.</a>",
    "text2": "Linux Command: <span class=\"copyToClipboard\">bash <(curl -sL https://tinyurl.com/vnc-ssh-forward) . &lt;vnc-server-ip-address-for-ssh&gt;</span>",
    "text3": "<a href=\"https://gitlab.com/defcronyke/vnc-ssh\" class=\"link\">https://gitlab.com/defcronyke/vnc-ssh</a>"
  },
  {
    "title": "Extreme Rise of the Triad",
    "text1": "Unofficial Linux DosBox helper scripts for The Apogee Throwback Pack version on Steam.",
    "text2": "Makes LAN gaming, alternate levels, and other things very simple to use without Proton/Wine.",
    "link": "https://gitlab.com/defcronyke/rise-of-the-triad-dosbox"
  },
  {
    "title": "Playfair Encryption Cipher Implementation",
    "text1": "Encrypt your secrets with an algorithm from the 1850s. It is probably not safe to do so, but fun anyway.",
    "text2": "This can be loaded directly from the Wayback machine, and also has a web version.",
    "link": "https://playfair.eternalvoid.net"
  },
  {
    "title": "Shipping Canada Post WooCommerce",
    "text1": "A free WooCommerce plugin that gives very accurate shipping estimates for Canada Post.",
    "text2": "You can use it on your Wordpress. Made by Jeremy and Fern.",
    "link": "https://github.com/defcronyke/shipping-canada-post-woocommerce"
  },
  {
    "title": "Go DS Cache",
    "text1": "A Google Cloud Platform Go Datatore wrapper library which adds caching to Datastore queries.",
    "text2": "Intended for use with App Engine Flexible Environment, Compute Engine, or Kubernetes Engine.",
    "link": "https://github.com/defcronyke/godscache"
  },
  {
    "title": "Telephone Sound Audio-Reactive Camera Filter",
    "text1": "Visualize your environment through sound. Try it on any device with a screen, camera, and microphone attached.",
    "text2": "Made with the HTML5 Web Audio API and WebGL.",
    "link": "https://github.com/defcronyke/ts-camera-filter"
  },
  {
    "title": "Stacktris",
    "text1": "A game that's like Tetris, but opposite.",
    "text2": "Made with Box2D and PixiJS.",
    "link": "https://defcronyke.github.io/stacktris"
  },
  {
    "title": "Box Hunter",
    "text1": "A game where you have to try to get to the black box without breaking it first.",
    "text2": "Made with Box2D and WebGL.",
    "link": "https://defcronyke.github.io/box-hunter-online"
  },
  {
    "title": "Grid Pattern Maker",
    "text1": "For knitting designs or other.",
    "text2": "Cross-platform, made with C++, WxWidgets, and SDL2.",
    "link": "https://github.com/defcronyke/GridPatternMaker"
  },
  {
    "title": "Audio Visuals",
    "text1": "Visualize your music with this HTML5 audio player.",
    "text2": "Made with HTML5 Canvas and Web Audio API.",
    "link": "https://defcronyke.github.io/audio-visuals"
  },
  {
    "title": "Contrarium",
    "text1": "Search for the opposite of what you're looking for.",
    "text2": "Made using the Wordnik API.",
    "link": "https://lucid-shuttle-100413.appspot.com"
  },
  {
    "title": "Recipes",
    "text1": "Cook good food.",
    "text2": "And eat it.",
    "link": "https://github.com/defcronyke/recipes"
  },
  {
    "title": "GitLab.com Profile",
    "text1": "Jeremy's GitLab profile page, containing info about the git-based programming projects Jeremy has created, forked, and/or contributed to on GitLab.com.",
    "link": "https://gitlab.com/defcronyke"
  },
  {
    "title": "GitHub.com Profile",
    "text1": "Jeremy's GitHub profile page, containing info about the git-based programming projects Jeremy has created, forked, and/or contributed to on GitHub.com.",
    "text2": "Note that Jeremy is preferring GitLab.com instead lately for any new projects.",
    "link": "https://github.com/defcronyke"
  },
  {
    "title": "EternalVoid.net",
    "text1": "The source code for this website.",
    "link": "https://github.com/defcronyke/eternalvoidnet"
  },
  {
    "title": "Pay Jeremy for Work",
    "text1": "PayPal: <a href=\"https://paypal.me/defcronyke\" class=\"link\">https://paypal.me/defcronyke</a>",
    "text2": "e-Transfer: <span class=\"copyToClipboard\">jeremy@jeremycarter.ca</span>",
    "text3": "BTC: <span class=\"copyToClipboard\">19kvJVcoSfMFAsryjFM9qwvHFSxDbHsNtF</span>",
    "text4": "Sponsor: <a href=\"https://github.com/sponsors/defcronyke\" class=\"link\">https://github.com/sponsors/defcronyke</a>"
  },
  {
    "title": "Contact Info",
    "text1": "<a href=\"mailto:Jeremy Carter <jeremy@jeremycarter.ca>\" class=\"link\">Jeremy Carter &lt;jeremy@jeremycarter.ca&gt;</a>",
    "text2": "<a href=\"https://keyserver.ubuntu.com/pks/lookup?search=jeremy%40jeremycarter.ca&fingerprint=on&op=vindex\" class=\"link\">gpg fingerprint:<br/><code>5D94 B83C 5F70 4530 313F<br/>A69A 4588 9CD6 B86D C3BF</code></a>",
    "text3": "<code>$ <span class=\"copyToClipboard\">gpg --keyserver hkps://keyserver.ubuntu.com --recv-keys 45889CD6B86DC3BF</span></code>"
  }
]
